/Users/benjamin/Class/API/api-jax-rs/rest-api/src/main/java/com/epsi/App.java
/Users/benjamin/Class/API/api-jax-rs/rest-api/src/main/java/com/epsi/BookApplication.java
/Users/benjamin/Class/API/api-jax-rs/rest-api/src/main/java/com/epsi/BookResource.java
